<?xml version="1.0" encoding="utf-8"?>
<!-- Generator: Adobe Illustrator 19.0.0, SVG Export Plug-In . SVG Version: 6.00 Build 0)  -->
<svg version="1.1" id="LOGO" xmlns="http://www.w3.org/2000/svg" xmlns:xlink="http://www.w3.org/1999/xlink" x="0px" y="0px"
	 viewBox="-440 343.7 398 115.3" style="enable-background:new -440 343.7 398 115.3;" xml:space="preserve">
<style type="text/css">
	.st0{fill:#FFFFFF;}
	.st1{fill:#6F3D24;}
	.st2{fill:#F58220;}
	.st3{fill:none;}
</style>
<polygon class="st0" points="-356.7,407 -355.1,407 -351.4,413.7 -351.4,413.7 -351.4,407 -350.2,407 -350.2,415.4 -351.7,415.4 
	-355.5,408.5 -355.5,408.5 -355.5,415.4 -356.7,415.4 "/>
<path class="st0" d="M-347.8,410.6c0.5-0.4,1.1-0.6,1.8-0.6c1.1,0,1.5,0.5,1.5,1.6c-0.4,0-0.8,0-1.2,0c-1.2,0-2.8,0.5-2.8,2
	c0,1.3,0.9,1.9,2.2,1.9c1,0,1.6-0.6,1.9-0.9l0,0v0.8h1.1c0-0.2-0.1-0.5-0.1-1.2v-2.5c0-1.7-0.7-2.5-2.4-2.5c-0.8,0-1.4,0.2-2,0.6
	V410.6 M-344.6,413c0,0.9-0.6,1.6-1.7,1.6c-0.5,0-1.1-0.4-1.1-1c0-1.1,1.5-1.2,2.1-1.2c0.2,0,0.5,0,0.7,0V413z"/>
<path class="st0" d="M-338.3,410.2h-1.6v3.3c0,0.7,0.4,1.1,0.9,1.1c0.4,0,0.6-0.1,0.8-0.2v1c-0.2,0.1-0.6,0.2-1,0.2
	c-1.2,0-1.9-0.6-1.9-1.8v-3.6h-1.4v-0.9h1.4v-1.4l1.1-0.4v1.8h1.6v0.9"/>
<path class="st0" d="M-336.8,407.9h1.3v-1.3h-1.3V407.9z M-336.7,415.4h1.1v-6.1h-1.1V415.4z"/>
<path class="st0" d="M-334,412.3c0,1.7,1.3,3.2,3.1,3.2c1.8,0,3.1-1.4,3.1-3.2c0-1.9-1.3-3.2-3.1-3.2
	C-332.7,409.1-334,410.5-334,412.3 M-332.8,412.3c0-1.2,0.7-2.3,1.9-2.3c1.2,0,1.9,1.1,1.9,2.3c0,1.1-0.6,2.3-1.9,2.3
	C-332.2,414.6-332.8,413.4-332.8,412.3"/>
<path class="st0" d="M-326.3,409.3h1.1v1l0,0c0.3-0.7,1.1-1.1,2-1.1c1.6,0,2.3,1,2.3,2.6v3.6h-1.1v-3.2c0-1.4-0.3-2.1-1.3-2.2
	c-1.3,0-1.8,1-1.8,2.5v2.8h-1.1L-326.3,409.3"/>
<path class="st0" d="M-318.6,410.6c0.4-0.4,1.1-0.6,1.8-0.6c1.1,0,1.5,0.5,1.5,1.6c-0.4,0-0.8,0-1.2,0c-1.2,0-2.8,0.5-2.8,2
	c0,1.3,0.9,1.9,2.2,1.9c1,0,1.6-0.6,1.9-0.9l0,0v0.8h1.1c0-0.2-0.1-0.5-0.1-1.2v-2.5c0-1.7-0.7-2.5-2.4-2.5c-0.8,0-1.4,0.2-2,0.6
	V410.6 M-315.4,413c0,0.9-0.6,1.6-1.7,1.6c-0.5,0-1.1-0.4-1.1-1c0-1.1,1.5-1.2,2.1-1.2c0.2,0,0.5,0,0.7,0V413z"/>
<rect x="-312.2" y="406.4" class="st0" width="1.1" height="9"/>
<path class="st0" d="M-299.4,411.9c0,2.3-1.2,3.6-3.2,3.6c-2.1,0-3.2-1.3-3.2-3.6V407h1.2v4.7c0,1.6,0.5,2.7,2,2.7s2-1.1,2-2.7V407
	h1.2V411.9"/>
<path class="st0" d="M-297.4,409.3h1.1v1l0,0c0.3-0.7,1.2-1.1,2-1.1c1.6,0,2.3,1,2.3,2.6v3.6h-1.1v-3.2c0-1.4-0.3-2.1-1.3-2.2
	c-1.3,0-1.9,1-1.9,2.5v2.8h-1.1V409.3"/>
<path class="st0" d="M-290,406.6h1.3v1.3h-1.3V406.6z M-290,409.3h1.1v6.1h-1.1V409.3z"/>
<polygon class="st0" points="-284.1,415.4 -285.4,415.4 -287.6,409.3 -286.4,409.3 -284.7,414.2 -284.7,414.2 -283,409.3 
	-281.9,409.3 "/>
<path class="st0" d="M-276.1,414c-0.3,0.2-1.1,0.6-1.9,0.6c-1.1,0-2-0.8-2-2h4.4c0-2-0.7-3.4-2.7-3.4c-1.7,0-2.9,1.3-2.9,3.1
	c0,2,1,3.3,3.2,3.3c1,0,1.5-0.2,1.9-0.4V414 M-280,411.7c0.1-0.8,0.5-1.7,1.6-1.7c1,0,1.5,0.8,1.5,1.7H-280z"/>
<path class="st0" d="M-274.2,409.3h1v0.9l0,0c0.3-0.6,0.9-1.1,1.6-1.1c0.3,0,0.5,0,0.7,0.1v1c-0.2-0.1-0.4-0.1-0.6-0.1
	c-1,0-1.7,0.9-1.7,2.5v2.8h-1.1L-274.2,409.3"/>
<path class="st0" d="M-270,414.2c0.4,0.3,1.1,0.4,1.4,0.4c0.5,0,1.1-0.2,1.1-0.9c0-1.1-2.6-1-2.6-2.7c0-1.3,0.9-1.9,2.1-1.9
	c0.5,0,1,0.1,1.4,0.2l-0.1,1c-0.2-0.2-0.9-0.3-1.2-0.3c-0.6,0-1.1,0.2-1.1,0.7c0,1.2,2.6,0.9,2.6,2.8c0,1.3-1,1.9-2.1,1.9
	c-0.6,0-1.1-0.1-1.7-0.3L-270,414.2"/>
<path class="st0" d="M-264.8,406.6h1.3v1.3h-1.3V406.6z M-264.7,409.3h1.1v6.1h-1.1V409.3z"/>
<path class="st0" d="M-258.3,410.2h-1.6v3.3c0,0.7,0.4,1.1,0.9,1.1c0.3,0,0.6-0.1,0.8-0.2v1c-0.3,0.1-0.6,0.2-1,0.2
	c-1.2,0-1.9-0.6-1.9-1.8v-3.6h-1.4v-0.9h1.4v-1.4l1.1-0.4v1.8h1.6v0.9"/>
<path class="st0" d="M-257.4,417c0.1,0,0.3,0.1,0.5,0.1c1,0,1.3-1.4,1.3-1.5s-0.2-0.4-0.2-0.6l-2.1-5.7h1.2l1.6,5l0,0l1.7-5h1.1
	l-2.2,6.2c-0.4,1.2-0.9,2.5-2.3,2.5c-0.4,0-0.6,0-0.8-0.1L-257.4,417"/>
<path class="st0" d="M-357.2,426.4c0,1.7,1.3,3.2,3.1,3.2c1.8,0,3.1-1.4,3.1-3.2c0-1.9-1.2-3.2-3.1-3.2S-357.2,424.6-357.2,426.4
	 M-356,426.4c0-1.2,0.7-2.3,1.9-2.3c1.2,0,1.9,1.1,1.9,2.3c0,1.1-0.6,2.3-1.9,2.3C-355.4,428.7-356,427.5-356,426.4"/>
<path class="st0" d="M-348.8,424.3h-1.4v-0.9h1.4v-0.6c0-1.5,0.4-2.4,2-2.4c0.3,0,0.5,0,0.8,0.1v0.9c-0.1,0-0.3-0.1-0.5-0.1
	c-1,0-1.1,0.6-1.1,1.5v0.7h1.6v0.9h-1.6v5.2h-1.1L-348.8,424.3"/>
<path class="st0" d="M-338,422.4c-0.6-0.2-0.9-0.3-1.6-0.3c-0.7,0-1.4,0.2-1.4,1.1c0,1.6,3.6,1.2,3.6,4c0,1.8-1.4,2.5-3,2.5
	c-0.6,0-1.2-0.2-1.7-0.3l0.1-1.1c0.4,0.2,1.1,0.4,1.7,0.4c0.7,0,1.6-0.4,1.6-1.4c0-1.9-3.6-1.3-3.6-3.9c0-1.5,1.2-2.3,2.7-2.3
	c0.6,0,1.2,0.1,1.8,0.3L-338,422.4"/>
<path class="st0" d="M-335.8,420.8h1.3v1.3h-1.3V420.8z M-335.8,423.4h1.1v6.1h-1.1V423.4z"/>
<path class="st0" d="M-332.6,423.4h1.1v1l0,0c0.3-0.7,1.1-1.1,2-1.1c1.6,0,2.3,1,2.3,2.6v3.6h-1.1v-3.1c0-1.4-0.3-2.1-1.3-2.2
	c-1.3,0-1.8,1-1.8,2.5v2.8h-1.1v-6.1"/>
<path class="st0" d="M-319.9,423.4h-1v0.9l0,0c-0.3-0.7-0.9-1.1-2-1.1c-1.8,0-2.7,1.7-2.7,3.2c0,1.6,0.9,3,2.6,3c0.8,0,1.6-0.3,2-1
	l0,0v0.6c0,1.3-0.7,2.1-1.9,2.1c-0.8,0-1.3-0.2-2.2-0.5l-0.1,1c1,0.3,1.5,0.4,2.2,0.4c2.2,0,3.1-1.1,3.1-2.9V423.4 M-322.8,428.6
	c-1,0-1.7-1-1.7-2.2c0-1,0.6-2.3,1.7-2.3c1.2,0,1.8,1.1,1.8,2.4C-321,427.6-321.7,428.6-322.8,428.6"/>
<path class="st0" d="M-317.6,424.8c0.5-0.4,1.1-0.6,1.8-0.6c1.1,0,1.5,0.5,1.5,1.6c-0.4,0-0.8,0-1.2,0c-1.2,0-2.8,0.5-2.8,2
	c0,1.3,0.9,1.9,2.2,1.9c1,0,1.6-0.6,1.9-0.9l0,0v0.8h1c0-0.2,0-0.5,0-1.2v-2.7c0-1.7-0.7-2.5-2.5-2.5c-0.8,0-1.4,0.2-2,0.6
	L-317.6,424.8 M-314.4,427.1c0,0.9-0.6,1.6-1.7,1.6c-0.5,0-1.1-0.3-1.1-1c0-1.1,1.5-1.2,2.1-1.2c0.2,0,0.5,0,0.7,0V427.1z"/>
<path class="st0" d="M-311.3,432h1.1v-3.3l0,0c0.4,0.6,1,1,2,1c1.8,0,2.6-1.6,2.6-3.3c0-1.6-0.9-3.1-2.6-3.1c-1.1,0-1.8,0.6-2.1,1
	l0,0v-0.9h-1.1v8.6 M-306.7,426.4c0,1-0.5,2.3-1.7,2.3c-1.3,0-1.8-1.3-1.8-2.3c0-1.1,0.6-2.3,1.8-2.3S-306.7,425.3-306.7,426.4"/>
<path class="st0" d="M-304.4,426.4c0,1.7,1.3,3.2,3.1,3.2s3.1-1.4,3.1-3.2c0-1.9-1.2-3.2-3.1-3.2S-304.4,424.6-304.4,426.4
	 M-303.3,426.4c0-1.2,0.7-2.3,1.9-2.3c1.2,0,1.9,1.1,1.9,2.3c0,1.1-0.6,2.3-1.9,2.3S-303.3,427.5-303.3,426.4"/>
<path class="st0" d="M-296.7,423.4h1v1l0,0c0.3-0.6,0.9-1.1,1.6-1.1c0.3,0,0.5,0,0.7,0.1v1c-0.2-0.1-0.4-0.1-0.6-0.1
	c-1,0-1.7,1-1.7,2.5v2.8h-1.1L-296.7,423.4"/>
<path class="st0" d="M-287.4,428.1c-0.3,0.2-1.1,0.6-1.9,0.6c-1.1,0-2-0.8-2-2h4.3c0-2-0.7-3.4-2.7-3.4c-1.7,0-2.8,1.3-2.8,3.1
	c0,2,1,3.3,3.2,3.3c1,0,1.5-0.2,1.9-0.4V428.1 M-291.3,425.8c0.1-0.8,0.5-1.7,1.6-1.7c1,0,1.5,0.8,1.5,1.7H-291.3z"/>
<path class="st0" d="M-279.5,390.4c2.3,2.1,6.8,4,12.3,4.1c4.8,0.1,8.7-1.4,8.9-5.4c0.5-8.7-21.7-5.2-20.8-19.8
	c0.4-7.3,7.7-9.7,15.5-9.6c4.2,0.1,8.5,1.1,10.8,2.3v5.2c-2.8-1.9-6.8-3.2-10-3.2c-5-0.1-8.9,0.8-9,4.5c-0.1,7.6,22.3,5.8,21.4,20.3
	c-0.5,8.2-8.4,10.7-16.7,10.5c-4.8-0.1-9.4-1-12.4-2.5V390.4"/>
<path class="st0" d="M-300.5,399.2c-10.3,0-16.3-4.6-16.3-14.2v-24.1h7.7v24.2c0,5.9,2.8,9.5,8.5,9.5s8.5-3.6,8.5-9.5v-24.2h7.7
	v24.2C-284.3,394.6-290.2,399.2-300.5,399.2"/>
<path class="st0" d="M-329.3,360.9v27.2l-17.8-25.3c-0.8-1.2-2.2-1.9-3.8-1.9h-5.9v37.2h5.2v-27.4l17.7,25.2c0.8,1.2,2.2,2,3.8,2
	h5.8v-37H-329.3"/>
<path class="st0" d="M-365.6,399.5V361h-62.6v38.5v0.3c0,1.8,0.4,11.4,8.1,23.6c8.4,13.3,22.4,17.4,23,17.6l0.2,0.1l0.2-0.1
	c0.6-0.2,14.6-4.3,23-17.6C-365.3,410.1-365.5,399.9-365.6,399.5"/>
<path d="M-375,422.2c-7.6,12-20.2,16.3-22,16.9c-1.7-0.6-14.3-4.9-21.9-16.9s-7.9-21.6-7.9-22.9v-0.2v-13.5h59.6v13.6v0.2
	C-367.2,400.7-367.4,410.3-375,422.2"/>
<path class="st1" d="M-384.5,391.2L-384.5,391.2L-384.5,391.2z"/>
<path d="M-398.9,365.4c-0.1,0-2.7-0.5-5.7-0.5c-2.4,0-4.6,0.7-5.5,1.1c-1-0.4-3.1-1.1-5.5-1.1c-3,0-5.6,0.5-5.7,0.5l-0.3,0.1v16.2
	l0.5-0.1c0,0,2.1-0.5,5.2-0.5c2.3,0,4.8,0.7,5.7,1l0.1,0.1l0.1-0.1c1-0.3,3.4-1,5.7-1c3.1,0,5.2,0.5,5.2,0.5l0.5,0.1v-16.2
	L-398.9,365.4"/>
<path class="st0" d="M-410.5,366.8c-1-0.4-3-1-5.1-1c-2.4,0-4.4,0.3-5.2,0.4v12.3c0.8-0.1,2.6-0.4,4.9-0.4c2.1,0,4.2,0.5,5.4,0.9
	V366.8"/>
<path class="st0" d="M-404.5,365.8c-2.2,0-4.2,0.6-5.2,1v12.1c1.2-0.4,3.4-0.9,5.5-0.9c2.3,0,4.1,0.2,4.9,0.4v-12.2
	C-400.1,366.1-402.2,365.8-404.5,365.8"/>
<path d="M-418.5,367.9c-0.3,0.1-0.5,0.4-0.4,0.6c0.1,0.3,0.4,0.4,0.7,0.3c0,0,1.6-0.3,2.9-0.3c1.2,0,2.6,0.5,2.6,0.6
	c0.3,0.1,0.6,0,0.7-0.3c0.1-0.3,0-0.5-0.3-0.6c-0.1,0-1.6-0.6-3-0.6C-416.8,367.5-418.5,367.9-418.5,367.9"/>
<path d="M-418.5,370.3c-0.3,0.1-0.5,0.4-0.4,0.6c0.1,0.3,0.4,0.4,0.7,0.3c0,0,1.6-0.3,2.9-0.3c1.2,0,2.6,0.5,2.6,0.6
	c0.3,0.1,0.6,0,0.7-0.3s0-0.5-0.3-0.6c-0.1,0-1.6-0.6-3-0.6C-416.8,370-418.5,370.3-418.5,370.3"/>
<path d="M-418.5,372.7c-0.3,0.1-0.5,0.4-0.4,0.6c0.1,0.3,0.4,0.4,0.7,0.3c0,0,1.6-0.3,2.9-0.3c1.2,0,2.6,0.5,2.6,0.5
	c0.3,0.1,0.6,0,0.7-0.3c0.1-0.3,0-0.5-0.3-0.6c-0.1,0-1.6-0.6-3-0.6C-416.8,372.4-418.5,372.7-418.5,372.7"/>
<path d="M-418.5,375.2c-0.3,0.1-0.5,0.4-0.4,0.6c0.1,0.3,0.4,0.4,0.7,0.3c0,0,1.6-0.3,2.9-0.3c1.2,0,2.6,0.6,2.6,0.6
	c0.3,0.1,0.6,0,0.7-0.3c0.1-0.3,0-0.5-0.3-0.6c-0.1,0-1.6-0.6-3-0.6C-416.8,374.9-418.5,375.2-418.5,375.2"/>
<path d="M-401.6,367.9c0.3,0.1,0.5,0.4,0.4,0.6c-0.1,0.3-0.4,0.4-0.7,0.3c0,0-1.6-0.3-2.9-0.3c-1.2,0-2.6,0.5-2.6,0.6
	c-0.3,0.1-0.6,0-0.7-0.3c-0.1-0.3,0-0.5,0.3-0.6c0.1,0,1.6-0.6,3-0.6C-403.3,367.5-401.7,367.9-401.6,367.9"/>
<path d="M-401.6,370.3c0.3,0.1,0.5,0.4,0.4,0.6c-0.1,0.3-0.4,0.4-0.7,0.3c0,0-1.6-0.3-2.9-0.3c-1.2,0-2.6,0.5-2.6,0.6
	c-0.3,0.1-0.6,0-0.7-0.3s0-0.5,0.3-0.6c0.1,0,1.6-0.6,3-0.6C-403.3,370-401.7,370.3-401.6,370.3"/>
<path d="M-401.6,372.7c0.3,0.1,0.5,0.4,0.4,0.6c-0.1,0.3-0.4,0.4-0.7,0.3c0,0-1.6-0.3-2.9-0.3c-1.2,0-2.6,0.5-2.6,0.5
	c-0.3,0.1-0.6,0-0.7-0.3c-0.1-0.3,0-0.5,0.3-0.6c0.1,0,1.6-0.6,3-0.6C-403.3,372.4-401.7,372.7-401.6,372.7"/>
<path d="M-401.6,375.2c0.3,0.1,0.5,0.4,0.4,0.6c-0.1,0.3-0.4,0.4-0.7,0.3c0,0-1.6-0.3-2.9-0.3c-1.2,0-2.6,0.6-2.6,0.6
	c-0.3,0.1-0.6,0-0.7-0.3c-0.1-0.3,0-0.5,0.3-0.6c0.1,0,1.6-0.6,3-0.6C-403.3,374.9-401.7,375.2-401.6,375.2"/>
<path class="st0" d="M-369.9,396.6c-0.3-1.1-0.9-1.6-1.6-2c-2.1-1.1-4.8-0.3-7.2,0.5c-1.7,0.6-2.3,0.8-4.3,1.1
	c-1.5,0.2-6.7,0.9-8.3-0.4c-0.2-0.2-0.5-0.6-0.5-0.9c0-0.6,0.2-1.2,0.4-1.4c0.4-0.5,1.4-0.7,2.9-0.7l4,0.1c0.3,0.3,0.9,0.8,2.5,1.2
	c2.6,0.6,5.4-0.3,5.4-0.3s-0.5-0.1-0.9-0.4c-0.3-0.3-0.3-0.6-0.3-0.6s0.6,0.3,1.4,0.2c1,0,1.5-0.5,2.5-0.8s2,0,2,0s-1-1-1.9-1.2
	c-1-0.2-2.2,0.1-2.2,0.1s0.3-0.1,0.7-0.5c0.3-0.3,0.3-0.7,0.3-0.7s-1.1,0.4-2.3,0.4c-1.2-0.1-1.1-0.5-3.3-0.5c-1.7,0-3.1,1-3.7,1.5
	c-1.8-0.1-3.3-0.2-4.1-0.2c-2.3,0-3.7,0.4-4.5,1.3c-0.7,0.7-1,1.7-0.9,2.9c0.1,0.9,0.5,1.7,1.2,2.3c2.2,1.8,8,1.2,10.1,0.9
	c2.3-0.4,3-0.6,4.3-1h0.1c1-0.4,4.2-1.4,5.5-0.7c0.3,0.1,0.4,0.4,0.6,0.8c0,0.2,0.1,0.3,0.1,0.5c0,0.3-0.1,0.5-0.3,0.7
	c-1.2,1.5-5.7,1.7-7.7,1.8c-0.2,0-1.5-0.3-3.3-0.3c-1.2,0-2.2,0.1-3.2,0.1c-1.9,0.1-3.8,0.3-7.1-0.1c-1.5-0.2-2.9-0.5-4-0.8
	c0-0.4-0.2-0.8-0.6-1.2c0.8,0.2,1.8-0.6,2.1-1c0,0-1.4-0.4-1.5-1.3c0,0,1,0.1,1.4-1.3c-1-0.5-0.7-0.7-1.1-1.4
	c-0.4-0.6-1-0.9-1.8-0.9c0.3,0,0.3,0,0.7-0.2c0.4-0.2,0.7-0.8,1.1-0.8c-0.8-1.3-3.1-1.5-4.1-1.2c0.3-0.3,0.6-0.6,0.6-1.1
	c-1.3,0.4-2.5-0.3-3.8-0.1c-1.1,0.2-1.7,0.6-2,1.6h-0.1c-0.3-1-0.9-1.4-2-1.6c-1.3-0.2-2.5,0.4-3.8,0.1c0,0.4,0.4,0.8,0.6,1.1
	c-0.9-0.3-3.2-0.1-4.1,1.2c0.4,0,0.7,0.6,1.1,0.8c0.4,0.2,0.4,0.1,0.7,0.2c-0.7,0-1.3,0.3-1.7,0.9c-0.5,0.7-0.2,0.9-1.1,1.4
	c0.4,1.3,1.4,1.2,1.4,1.3c-0.1,0.9-1.5,1.3-1.5,1.3c0.3,0.4,1.3,1.3,2.1,1c-0.6,0.7-0.7,1.3-0.6,2c-1-0.8-2-1.6-2.5-2.3
	c-0.1-0.2-0.5-1.5-0.8-2.3l-0.1-1l-0.1-0.4c-0.3-1.1-0.6-2.1-1.1-2.2c-0.3-0.1-0.5-0.1-0.8-0.1c-0.2-0.3-0.4-0.6-0.7-0.7
	c-0.6-0.2-0.9,0-0.9,0s0.5,0.3,0.6,0.7c0.1,0.1,0.1,0.2,0.1,0.3c-0.1,0.1-0.2,0.1-0.3,0.2l0,0c-0.1,0.1-0.1,0.1-0.2,0.2h-0.1
	c-0.6-0.1-0.9,0.1-0.9,0.1s0.3,0.2,0.6,0.4c-0.2,0.3-0.4,0.7-0.4,1.2v0.1c-0.6,0-0.8,0.3-0.8,0.3s0.6,0.2,0.9,0.4l0.1,0.1v0.1
	c-0.1,0.2-0.2,0.4-0.2,0.6c0,0.5,0.3,1.1,0.7,1.5c0,0,1.1,0.9,1.2,1c0.4,0.9,0.9,1.8,1.2,2.1c0.1,0.1,0.7,1.2,1.4,2.4
	c0.1,0.2,0.2,0.3,0.3,0.5c0.2,0.7,0.3,1.6,0.4,2.4c0.1,1.3,0,2.7,0,2.7s0.8,0,1.2-0.6c0,0,0.3,0.9,0.3,1.9c0,0.8-0.2,1.8-0.2,1.8
	s0.8-0.4,1.4-1c0.3-0.3,0.6-0.7,0.8-1c0.7,0.4,2.6-0.2,3.6-0.6c0.2,0.4,0.5,0.8,0.8,1.3c0.1-0.6,0.8-0.9,1-1.3h0.3
	c0,0.6-0.2,1.2,0.4,2.4c0.2,0.3,1,1.6,1.6,2.2c-0.2,1.1-0.7,3-1.1,4.6c-0.5,1.8-0.9,2.7-1.2,3.2c-0.7,0-1.9,0.1-2.3,0.1
	c-1,0-1.7,0.2-2.1,0.6l-0.1,0.1c-0.3,0-0.7,0.2-0.9,0.4c-0.6,0.3-0.6,0.6-0.6,0.6s0.5-0.3,0.9-0.3h0.1v0.1c0,0.1,0.1,0.2,0.1,0.4
	c-0.1,0.1-0.1,0.1-0.2,0.2c-0.4,0.5-0.4,0.8-0.4,0.8s0.5-0.3,0.9-0.4c0.1,0.2,0.2,0.4,0.4,0.6c0,0,0,0-0.1,0.1
	c-0.3,0.5-0.3,0.8-0.3,0.8s0.4-0.3,0.8-0.4c0.1,0.1,0.3,0.3,0.4,0.4c0.6,0.5,2,0.2,3.8-0.3l1.1-0.3c0.8-0.1,1.3-0.5,1.7-1.1
	c0.1-0.1,0.2-0.4,0.3-0.7l0.1-0.3c0.2-0.7,0.4-1.2,0.9-1.9c0,0,0.5-0.8,1.2-1.9c0.6-0.5,1.3-1.1,1.8-1.4c0.8-0.5,2.3-1.3,2.3-1.3
	s-0.4-0.7-1-0.8c0,0,0.8-0.8,1.5-1.1c0.8-0.3,1.7-0.5,1.7-0.5s-0.3-0.7-0.9-1.1c0.2-0.1,0.4-0.2,0.7-0.4c1.3-0.9,2.3-0.8,3.2-0.6
	c0-0.6-0.1-1-0.6-1.3c0.4-0.2,0.9-0.3,1.4-0.4c0.3,0.5,0.6,1.1,0.8,1.3c0.7,1,1.7,2.3,2.5,3.1v0.1c0,0.3-0.4,1.3-0.7,1.8l-0.2,0.5
	c0,0-0.8,2-1.1,2.5c-0.5,0-1.9,0.1-2.4,0.1c-0.9-0.1-1.6,0.1-2.1,0.6c-0.1,0.1-0.1,0.1-0.1,0.2c-0.3,0-0.8,0.2-1,0.5
	c-0.4,0.5-0.4,0.8-0.4,0.8s0.5-0.3,0.9-0.4c0.1,0,0.1,0,0.2,0c0,0.1,0.1,0.3,0.2,0.4c-0.1,0.1-0.2,0.1-0.2,0.2
	c-0.3,0.5-0.3,0.8-0.3,0.8s0.5-0.4,0.9-0.4l0,0c0.1,0.1,0.2,0.3,0.3,0.4l-0.1,0.1c-0.3,0.5-0.3,0.8-0.3,0.8s0.5-0.4,0.8-0.4
	c0.1,0.2,0.2,0.3,0.3,0.4c0.5,0.5,1.7,0.2,3.3-0.3l1.1-0.3c0.8-0.1,1.3-0.4,1.6-1l0.3-0.6c0.1-0.3,0.3-0.7,0.4-0.9
	c0.2-0.3,0.4-0.6,0.6-1c0.3-0.2,0.5-0.4,0.7-0.6c0.5-0.4,1.8-1.1,1.8-1.1s-0.3-0.5-0.8-0.6c0,0,0.5-0.6,1.1-0.9
	c0.5-0.3,1.3-0.4,1.3-0.4s-0.6-0.5-1.1-0.7c-0.2-0.1-0.4-0.1-0.7-0.2c0-0.3-0.2-0.6-0.4-1c-0.5-0.7,0.2-2.2,0.7-3.1
	c0.2,0.3,0.7,0.9,1.4,1.7c0,0,2.3,2.5,2.8,3.1c-0.1,0.4-0.4,1.7-0.9,3.1c-0.4,1-0.9,2.1-1.2,2.6c-0.6,0-1.8,0.1-2.3,0.1
	c-0.9,0-1.6,0.2-2.1,0.6c-0.1,0.1-0.1,0.1-0.2,0.2c-0.3,0.1-0.7,0.2-0.8,0.4c-0.4,0.5-0.4,0.8-0.4,0.8s0.4-0.4,0.9-0.4h0.1
	c0,0.1,0.1,0.3,0.2,0.4c-0.1,0.1-0.2,0.1-0.2,0.2c0,0.7,0,1,0,1s0.5-0.4,0.9-0.4l0,0c0.1,0.2,0.3,0.4,0.4,0.5l0,0
	c-0.3,0.5-0.3,0.9-0.3,0.9s0.4-0.3,0.7-0.4c0.1,0.1,0.2,0.2,0.3,0.3c0.5,0.5,1.7,0.2,3.3-0.3l1.1-0.3c0.8-0.1,1.2-0.4,1.6-1
	c0.2-0.3,0.9-1.9,1.1-2.4c0.3-0.9,0.7-1.7,1.1-2.5c0.2-0.2,0.4-0.3,0.5-0.4c0.6-0.4,2-1.2,2-1.2s-0.3-0.6-0.8-0.6
	c0,0,0.5-0.5,1.1-0.9c0.5-0.3,1.4-0.5,1.4-0.5s-0.6-0.5-1.1-0.7c-0.3-0.1-0.7-0.2-0.9-0.2c-0.1-0.4-0.3-0.5-0.6-0.7
	c-0.3-0.1-0.6-0.3-1.2-0.9c-0.7-0.8-0.8-2.4-0.8-3.9v-1v-1.5c-0.1-1.8-0.3-3-0.6-3.8c2.3-0.2,6.5-0.7,8.2-2.8
	c0.5-0.6,0.8-1.4,0.8-2.2C-369.7,397.4-369.8,397-369.9,396.6"/>
<path d="M-405.1,396.3c0,0.1,0.3,2.9,0.3,2.9s-1.5,0.8-1.6,0.9c0,0.1,0,1,0,1c0.1,0.1,0.3,0.3,0.6,0.4c0.5,0.2,1,0.1,1,0.1h0.1
	l-0.1,0.4l0,0c0,0-0.6,0.1-1.1,0c-0.4-0.1-0.6-0.3-0.7-0.3h-0.3c-0.1,0-0.3,0.2-0.7,0.3c-0.5,0.1-1.1,0-1.1,0l0,0l-0.1-0.4h0.1
	c0,0,0.5,0.1,1-0.1c0.3-0.1,0.6-0.3,0.6-0.4s0-1,0-1c-0.1,0-1.6-1.1-1.6-1.1s2.7,0,2.8,0v-3.8h2.2h0.3
	C-403.2,395.1-405.1,396.2-405.1,396.3 M-410,395.1h2.1h0.1l-0.1,1.2L-410,395.1z M-402,394.9c0.4-0.3,1.2-1,0.8-1.8
	c-0.5-0.9-1.6-0.5-1.9-0.4c0,0-2.5-1.1-2.6-1.1l-1,1.1c0,0-1-1.2-1-1.1c0,0-2.5,1.1-2.6,1.1c-0.3-0.1-1.4-0.5-1.9,0.4
	s0.4,1.6,0.8,1.8l0,0l-0.8,1.4l2.3,2.8v1.8c0,0,0.9,0.6,1,0.6c0.1,0.7,0.2,1,0.4,1.4c0.1,0.1,0.9,0.4,1.8,0.4h0.1
	c0.9,0,1.7-0.3,1.8-0.4c0.2-0.4,0.2-0.7,0.4-1.4c0.1,0,1-0.6,1-0.6v-1.8l2.3-2.8C-401.2,396.4-402,394.9-402,394.9L-402,394.9z"/>
<path d="M-386.3,415.7c0.3-0.3,0.5-0.4,0.5-0.6c0-0.2-0.1-0.4-0.3-0.7c-0.2-0.3-0.2-0.6-0.2-0.9c0-1.1,0.7-2.5,1-3
	c-0.1-0.1-0.2-0.3-0.3-0.5c-0.1-0.1-0.2-0.1-0.2-0.1c-0.2-0.1-0.7-0.6-1-1c0-0.1-0.1-0.1-0.1-0.2c-0.6,0-2.1-0.1-3.6,0.4
	c0.5,0.3,0.6,0.6,0.6,1.1c-1-0.2-1.8-0.2-2.6-0.1c0.3,0.5,0.5,0.9,0.7,1.1c0.7,0.9,1.7,2.2,2.5,3c0.1,0.1,0.2,0.3,0.2,0.5
	c0,0.5-0.3,1.2-0.7,2.1l-0.2,0.5l-1.2,2.8h-0.2c-0.1,0-2,0.1-2.6,0.1c-0.7,0-1.2,0.1-1.5,0.3c0,0.1,0.1,0.3,0,0.5
	c-0.1,0.2-0.2,0.3-0.3,0.4v0.1c0.4-0.1,0.7-0.2,0.7-0.2s0.2,0.3,0.1,0.6s-0.2,0.4-0.3,0.5c0,0,0,0.1,0.1,0.1
	c0.4-0.2,0.9-0.2,0.9-0.2s0.2,0.3,0.1,0.7c0,0.2-0.1,0.3-0.2,0.4c0.5,0.2,1.8-0.2,2.7-0.5l1.2-0.3c0.6-0.1,1-0.3,1.2-0.8l0.3-0.6
	c0.1-0.4,0.3-0.7,0.5-1c0.4-0.6,0.8-1.4,1.2-2.2C-387.1,417-386.6,416-386.3,415.7"/>
<path class="st2" d="M-409.1,408.4L-409.1,408.4L-409.1,408.4C-409,408.4-409.1,408.4-409.1,408.4"/>
<path d="M-411.5,405.1c-0.4,0.6-1,0.8-1.9,0.9c0.2-0.9,0-1.5-0.3-2.1c-0.3-0.6-1-1.8-1.3-2.5c-0.1-0.2-0.1-0.4-0.2-0.5
	c-1.2-0.9-2.5-2-3.2-2.8c-0.2-0.2-0.4-1-0.9-2.5l-0.2-0.7l-0.1-0.4c-0.3-1.1-0.6-1.7-0.7-1.8c-0.1,0-0.2,0-0.3-0.1l0,0
	c0,0-0.1,0.3-0.6,0.3c-0.1,0-0.2-0.1-0.3-0.1s-0.1,0.1-0.1,0.1l0,0l-0.1,0.1c0.3,0.3,0.6,0.7,0.6,0.7s-0.1,0.4-0.6,0.4
	c-0.3,0.1-0.6-0.2-0.6-0.2s0-0.1,0-0.3c-0.1,0.3-0.2,0.6-0.1,0.9c0.4,0.2,0.8,0.6,0.8,0.6s0,0.3-0.5,0.6c-0.2,0.1-0.4,0-0.5,0
	c-0.1,0.3,0.1,0.8,0.5,1.2l1.3,1v0.1c0.4,0.9,0.9,1.7,1.1,2c0.1,0.1,0.5,0.8,1.5,2.5c1.4,2.4,3.5,5.9,4,6.5c0.2,0.2,1.6-0.1,3-0.7
	C-411.8,407.1-411.3,406.3-411.5,405.1"/>
<path d="M-370.4,396.8c-0.3-0.9-0.7-1.3-1.3-1.7c-1.9-1-4.4-0.3-6.7,0.5c-1.9,0.7-2.5,0.8-4.5,1.1s-7,0.9-8.8-0.6
	c-0.4-0.3-0.7-0.9-0.7-1.3c-0.1-0.7,0.2-1.5,0.5-1.9c0.5-0.6,1.6-0.9,3.4-0.9c0,0,2.7,0,4.1,0.1l0.3-0.3l-0.2-0.1
	c-1.8-0.1-3.3-0.2-4.1-0.2c-2.2,0-3.4,0.3-4.1,1.1c-0.6,0.6-0.8,1.4-0.7,2.4c0.1,0.8,0.4,1.4,1,1.9c1.9,1.5,7.3,1.2,9.6,0.8
	c2.3-0.4,2.9-0.6,4.2-1h0.1c1.2-0.4,4.4-1.5,6-0.7c0.4,0.2,0.7,0.6,0.9,1.2c0.2,0.7,0.1,1.2-0.3,1.7c-1.4,1.7-5.8,1.9-8.1,2l0,0l0,0
	c0,0-1.4-0.3-3.2-0.4c-1.1,0-2.1,0.1-3.1,0.2c-1.9,0.1-3.9,0.3-7.2-0.1c-1.5-0.2-2.8-0.4-3.9-0.7c-0.1,0.4-0.2,0.9-0.5,1.6
	c-0.2,0.7-1,1.9-1.3,2.5c-0.3,0.7-0.5,1.3-0.3,2.1c-0.9-0.1-1.5-0.4-1.9-0.9c-0.3,1.6,0.7,2.6-1.3,5.2c-0.2-0.8-1.3-1-1.2-1.9
	c-0.4,0.9,0.2,1.5-0.6,3c-0.2,0.4-1.3,2-1.9,2.5c-0.2,1.1-0.7,3-1.1,4.5c-0.6,2.1-1.1,3-1.3,3.4l-0.1,0.1h-0.1
	c-0.6,0-2.1,0.1-2.5,0.1c-0.6,0-1.1,0.1-1.5,0.3c0,0.2,0,0.4,0,0.6c-0.1,0.2-0.3,0.3-0.4,0.3c0,0,0,0.1,0.1,0.1
	c0.4-0.1,0.8-0.1,0.8-0.1s0.2,0.4,0,0.8c-0.1,0.2-0.2,0.3-0.2,0.3c0,0.1,0.1,0.1,0.1,0.2c0.4-0.2,1-0.3,1-0.3s0.2,0.3,0.1,0.8
	c0,0.2-0.1,0.2-0.2,0.3c0.6,0.2,2.2-0.3,3.1-0.5l1.2-0.3c0.6-0.1,1-0.3,1.3-0.8c0.1-0.1,0.1-0.4,0.2-0.6l0.1-0.3
	c0.3-0.7,0.5-1.2,1-2.1c1.2-1.9,4.7-7.7,4.9-8.1v-0.1c0-0.3-0.1-1-0.3-1.4l-0.1-0.3c0,0,11.4-3.3,12.1-3.5c-0.2-0.4-0.7-1.2-0.7-1.2
	l0.4-0.4c0,0,0.9,0.7,1.4,1.1c0.4,0.4,0.8,1.1,1.3,1.8l0.2,0.4c0.5,0.8,1,1.3,1,1.4l0,0l0,0c0,0,0.4,0.7,1.6,2l3,3.3v0.1
	c0,0-0.4,1.6-1,3.3c-0.4,1.1-1,2.3-1.3,2.8l-0.1,0.1h-0.2c-0.6,0-2,0.1-2.5,0.1c-0.6,0-1.1,0.1-1.5,0.3c0,0.2,0.1,0.4,0,0.6
	c-0.1,0.2-0.2,0.3-0.3,0.4c0,0,0,0,0.1,0.1c0.4-0.1,0.7-0.2,0.7-0.2s0.2,0.3,0.1,0.7c0,0.2-0.2,0.4-0.3,0.4c0,0.1,0.1,0.1,0.1,0.2
	c0.4-0.2,1-0.3,1-0.3s0.2,0.3,0.1,0.7c0,0.2-0.2,0.3-0.3,0.4c0.6,0.1,1.8-0.3,2.5-0.5l1.2-0.3c0.6-0.1,1-0.3,1.2-0.8
	c0.1-0.2,0.8-1.7,1-2.3c0.7-1.8,1.8-4,2.5-5.2l0.4-0.6c0.2-0.3,0.4-0.6,0.4-0.8c0-0.3,0-0.3-0.3-0.4c-0.3-0.1-0.7-0.4-1.3-1.1
	c-1-1.1-1-3.4-0.9-5.3v-1.5c0-1.9-0.4-3.2-0.6-4l-0.1-0.3h0.4c2.1-0.2,6.5-0.6,8.2-2.6C-370.3,398.8-370.1,397.8-370.4,396.8"/>
<path class="st0" d="M-381.8,374.1c0.2,0.3,0.5,0.7,0.6,1.1c-0.2,0-0.4,0-0.6,0c-0.2,0-0.4,0-0.6,0
	C-382.2,374.8-382,374.4-381.8,374.1"/>
<path d="M-384.3,374c-0.5-0.3-0.8-0.8-1.1-1.3l0,0c0.6,0,1.1,0.1,1.6,0.3C-384,373.3-384.2,373.7-384.3,374 M-387.9,373.6
	c0.6,1.3,1.7,2.4,3,3.1c0,0.1,0,0.1,0,0.2c0,1.4,0.5,2.8,1.2,3.9c-0.5,0.2-1.1,0.3-1.6,0.3c-2.3,0-4.2-1.9-4.2-4.2
	C-389.6,375.5-389,374.3-387.9,373.6 M-378.2,372.7L-378.2,372.7c-0.3,0.5-0.6,0.9-1.1,1.3c-0.2-0.3-0.3-0.6-0.5-0.9
	C-379.3,372.8-378.7,372.7-378.2,372.7 M-385.4,370.1c-0.2,0-0.4,0-0.5,0c0.3-2.1,2-3.7,4.2-3.7c2.1,0,3.9,1.6,4.2,3.7h-0.5
	c-1.3,0-2.5,0.4-3.6,1C-382.8,370.4-384.1,370.1-385.4,370.1 M-378.6,376.7c1.3-0.7,2.3-1.8,3-3.1c1,0.8,1.7,2,1.7,3.3
	c0,2.3-1.9,4.2-4.2,4.2c-0.6,0-1.1-0.1-1.6-0.3c0.8-1.1,1.2-2.5,1.2-3.9L-378.6,376.7z M-382.3,377.4h0.5c0.2,0,0.3,0,0.5,0
	c-0.1,0.6-0.2,1.1-0.5,1.6C-382,378.5-382.2,378-382.3,377.4 M-375,370.9c0-0.1,0-0.2,0-0.2c0-3.8-3.1-6.8-6.8-6.8
	c-3.8,0-6.8,3.1-6.8,6.8v0.2c-2.2,1.1-3.6,3.4-3.6,6c0,3.8,3.1,6.8,6.8,6.8c1.3,0,2.5-0.4,3.6-1.1c1.1,0.7,2.3,1.1,3.6,1.1
	c3.8,0,6.8-3.1,6.8-6.8C-371.3,374.4-372.8,372-375,370.9"/>
<path class="st0" d="M-380.5,377.4c0.4-0.1,0.8-0.2,1.1-0.3c0,1.2-0.4,2.4-1.1,3.4c-0.3-0.2-0.6-0.5-0.8-0.7
	C-380.8,379-380.6,378.2-380.5,377.4"/>
<path class="st0" d="M-381.8,364.6c3.3,0,6,2.7,6,6.1c0,3.3-2.7,6.1-6,6.1h-0.6c0-0.4,0.1-0.7,0.2-1.1h0.4c2.7,0,5-2.2,5-5
	c0-2.7-2.2-5-5-5c-2.6,0-4.7,2-4.9,4.5c-0.4,0.1-0.8,0.2-1.1,0.3C-387.8,367.3-385.1,364.6-381.8,364.6"/>
<path class="st0" d="M-378.2,370.9h0.5c0,0.4-0.1,0.7-0.2,1.1h-0.3c-0.7,0-1.5,0.2-2.1,0.5c-0.3-0.3-0.5-0.6-0.8-0.8
	C-380.2,371.1-379.2,370.9-378.2,370.9"/>
<path class="st0" d="M-385.4,383c-3.3,0-6.1-2.7-6.1-6.1c0-3.3,2.7-6.1,6.1-6.1c2.4,0,4.5,1.4,5.5,3.5c-0.3,0.2-0.7,0.3-1,0.4
	c-0.8-1.7-2.5-2.8-4.5-2.8c-2.7,0-5,2.2-5,5c0,2.7,2.2,5,5,5c0.7,0,1.5-0.2,2.1-0.5c0.3,0.3,0.5,0.6,0.8,0.8
	C-383.4,382.7-384.4,383-385.4,383"/>
<path class="st0" d="M-386.3,372.8c0.4,0.8,1,1.4,1.7,1.9c-0.1,0.4-0.2,0.8-0.3,1.1c-1.1-0.6-1.9-1.6-2.4-2.7
	C-387,373-386.6,372.9-386.3,372.8"/>
<path class="st0" d="M-378.2,383c-3.3,0-6.1-2.7-6.1-6.1c0-1.3,0.4-2.5,1.1-3.5c0.3,0.2,0.6,0.4,0.8,0.7c-0.6,0.8-0.9,1.8-0.9,2.8
	c0,2.7,2.2,5,5,5c2.7,0,5-2.2,5-5c0-1.6-0.8-3.1-2.1-4.1c0.1-0.4,0.2-0.7,0.3-1.1c1.8,1.1,3,3.1,3,5.2
	C-372.1,380.3-374.8,383-378.2,383"/>
<rect x="-232.7" y="360.9" class="st0" width="1.1" height="80.2"/>
<line class="st3" x1="-465" y1="441" x2="-17.1" y2="441"/>
<line class="st3" x1="-464.8" y1="360.9" x2="-17.1" y2="360.9"/>
<line class="st3" x1="-428.2" y1="325.4" x2="-428.2" y2="476.4"/>
<line class="st3" x1="-51.4" y1="325.4" x2="-51.4" y2="476.6"/>
<line class="st3" x1="-214.1" y1="325.4" x2="-214.1" y2="476.4"/>
<polygon class="st3" points="-465.1,476.5 -465.1,325.4 -465,325.4 -17,325.4 -17,476.6 -465,476.6 "/>
<path class="st0" d="M-160.8,416.9c-1.6-0.4-1.7-1.7-1-3.9l10.2-27.6h-13.9l-1.2,3.1c0,0,3.6,0,4.3,0c1.4,0,1.8,0.2,0.9,2.3
	c-0.2,0.5-9.1,24.2-9.2,24.8c-0.2,0.6-0.3,0.9-0.3,1.9c0,2.5,2.1,4.2,5.8,4.2c4.5,0,8.5-2.1,8.5-2.1l1.6-4.2
	C-157,416.5-159.3,417.3-160.8,416.9z"/>
<path class="st0" d="M-89.7,392.4l2.3-6.4c0,0-12.1-2.5-21.2,1c-6.1,2.3-8.2,7.3-8.2,9.9c0,7.9,16.3,9,16.3,14.3
	c0,3.9-3.9,6.5-10.1,6.5s-11.1-2.6-11.1-2.6l-2.1,5.5c0,0,4.7,1.2,10.6,1.2c3.3,0,7-0.5,10.5-1.4c6.7-1.8,11.2-7,11.2-11.8
	c0-4.7-6.3-7.2-8.5-8.2c-6.1-2.7-7.8-3.9-7.8-6.2c0-1.5,1.1-3.2,2.8-4.4c1.7-1.1,4.1-1.5,5.8-1.5c3.2,0,4.9,0.7,5.9,1.4
	c2,1.3,1.1,2.7,1.1,2.7S-89.7,392.4-89.7,392.4z"/>
<path class="st0" d="M-130.9,400.5c-6.1-2.7-7.8-3.9-7.8-6.2c0-1.5,1.1-3.2,2.8-4.4c1.7-1.1,4.1-1.5,5.8-1.5c3.2,0,4.9,0.7,5.9,1.4
	c2,1.3,1.1,2.7,1.1,2.7h2.3l2.3-6.4c0,0-12.1-2.5-21.2,1c-6.1,2.3-8.2,7.3-8.2,9.9c0,7.9,16.3,9,16.3,14.3c0,3.9-3.9,6.5-10.1,6.5
	s-11.1-2.6-11.1-2.6l-2.1,5.5c0,0,4.7,1.2,10.6,1.2c3.3,0,7-0.5,10.5-1.4c6.7-1.8,11.2-7,11.2-11.8
	C-122.4,403.9-128.7,401.4-130.9,400.5z"/>
<path class="st0" d="M-178.8,375.5c0,0-1.6-3.3,2.4-7.9c5.1-5.8,10-6,10-6l0.4-0.8c0,0-7.3,0-14.6,7.3c-5.4,5.4-5.3,10.5-5.3,10.5
	L-178.8,375.5z"/>
<path class="st0" d="M-166.2,362.1l-3.6,6.1c0,0,5.3-1.4,6.7,2.1c1.6,4.2-3,8.6-3,8.6l0.5,0.4c0,0,6.2-5.3,6.2-11.3
	C-159.4,361.8-166.2,362.1-166.2,362.1z"/>
<path class="st0" d="M-170.1,375.9c0,0-5.1,6-11.4,6.1c-4.2,0.1-4.8-2.9-4.8-2.9l-0.9,0.4c0,0-0.1,5.5,6.9,5.5
	c7.1,0,13.7-5.9,13.7-5.9L-170.1,375.9z"/>
<path class="st0" d="M-214.1,435h1.2v6h-1.2V435z"/>
<path class="st0" d="M-210.4,435h1.5l2.3,4.5l0,0V435h1.2v6h-1.6l-2.3-4.5l0,0v4.5h-1.2v-6H-210.4z"/>
<path class="st0" d="M-199.7,436.1c-0.4-0.2-0.8-0.3-1.2-0.3s-0.9,0.2-0.9,0.8c0,1,2.6,0.6,2.6,2.6c0,1.3-1,1.8-2.3,1.8
	c-0.7,0-0.9-0.1-1.5-0.2l0.1-1.1c0.4,0.2,0.9,0.4,1.4,0.4s1.1-0.2,1.1-0.8c0-1.1-2.6-0.7-2.6-2.7c0-1.3,1-1.8,2.1-1.8
	c0.5,0,1,0.1,1.4,0.2L-199.7,436.1z"/>
<path class="st0" d="M-195.8,436h-1.7v-0.9h4.7v0.9h-1.7v5.1h-1.2V436H-195.8z"/>
<path class="st0" d="M-191,435h1.2v6h-1.2V435z"/>
<path class="st0" d="M-186.2,436h-1.7v-0.9h4.7v0.9h-1.8v5.1h-1.2V436z"/>
<path class="st0" d="M-181.3,435h1.2v3.5c0,1,0.3,1.7,1.2,1.7c0.9,0,1.2-0.7,1.2-1.7V435h1.2v3.8c0,1.6-0.9,2.3-2.5,2.3
	c-1.5,0-2.5-0.7-2.5-2.3V435H-181.3z"/>
<path class="st0" d="M-172.7,436h-1.7v-0.9h4.7v0.9h-1.7v5.1h-1.2L-172.7,436L-172.7,436z"/>
<path class="st0" d="M-167.8,435h3.6v0.9h-2.3v1.5h2.1v0.9h-2.1v1.7h2.4v0.9h-3.6V435H-167.8z"/>
<path class="st0" d="M-155.5,434.9c1.9,0,2.9,1.3,2.9,3.1c0,1.8-1,3.1-2.9,3.1s-2.9-1.3-2.9-3.1S-157.4,434.9-155.5,434.9z
	 M-155.5,440.2c1.2,0,1.7-1.1,1.7-2.2c0-1.1-0.5-2.1-1.7-2.1s-1.7,1.1-1.7,2.1C-157.2,439.1-156.7,440.2-155.5,440.2z"/>
<path class="st0" d="M-150.2,435h3.3v0.9h-2.1v1.5h2v0.9h-2v2.6h-1.2V435z"/>
<path class="st0" d="M-137.8,436.1c-0.4-0.2-0.8-0.3-1.2-0.3c-0.4,0-0.9,0.2-0.9,0.8c0,1,2.6,0.6,2.6,2.6c0,1.3-1,1.8-2.3,1.8
	c-0.7,0-0.9-0.1-1.5-0.2l0.1-1.1c0.4,0.2,0.9,0.4,1.4,0.4s1.1-0.2,1.1-0.8c0-1.1-2.6-0.7-2.6-2.7c0-1.3,1-1.8,2.1-1.8
	c0.5,0,1,0.1,1.4,0.2L-137.8,436.1z"/>
<path class="st0" d="M-133.5,438.7l-2.2-3.6h1.4l1.4,2.5l1.4-2.5h1.3l-2.2,3.6v2.4h-1.2v-2.4H-133.5z"/>
<path class="st0" d="M-124.8,436.1c-0.4-0.2-0.8-0.3-1.2-0.3c-0.4,0-0.9,0.2-0.9,0.8c0,1,2.6,0.6,2.6,2.6c0,1.3-1,1.8-2.3,1.8
	c-0.7,0-0.9-0.1-1.5-0.2l0.1-1.1c0.4,0.2,0.9,0.4,1.4,0.4s1.1-0.2,1.1-0.8c0-1.1-2.6-0.7-2.6-2.7c0-1.3,1-1.8,2.1-1.8
	c0.5,0,1,0.1,1.4,0.2L-124.8,436.1z"/>
<path class="st0" d="M-121,436h-1.7v-0.9h4.7v0.9h-1.7v5.1h-1.3V436z"/>
<path class="st0" d="M-116,435h3.6v0.9h-2.3v1.5h2.1v0.9h-2.1v1.7h2.4v0.9h-3.7V435z"/>
<path class="st0" d="M-110,435h1.9l1.4,4.6l0,0l1.4-4.6h1.9v6h-1.2v-5l0,0l-1.6,5h-1.2l-1.6-5l0,0v4.9h-1V435z"/>
<path class="st0" d="M-97.4,436.1c-0.4-0.2-0.8-0.3-1.2-0.3c-0.4,0-0.9,0.2-0.9,0.8c0,1,2.6,0.6,2.6,2.6c0,1.3-1,1.8-2.3,1.8
	c-0.7,0-0.9-0.1-1.5-0.2l0.1-1.1c0.4,0.2,0.9,0.4,1.4,0.4s1.1-0.2,1.1-0.8c0-1.1-2.6-0.7-2.6-2.7c0-1.3,1-1.8,2.1-1.8
	c0.5,0,1,0.1,1.4,0.2L-97.4,436.1z"/>
<path class="st0" d="M-87.8,436.1c-0.4-0.2-0.8-0.3-1.2-0.3c-0.4,0-0.9,0.2-0.9,0.8c0,1,2.6,0.6,2.6,2.6c0,1.3-1,1.8-2.3,1.8
	c-0.7,0-0.9-0.1-1.5-0.2l0.1-1.1c0.4,0.2,0.9,0.4,1.4,0.4s1.1-0.2,1.1-0.8c0-1.1-2.6-0.7-2.6-2.7c0-1.3,1-1.8,2.1-1.8
	c0.5,0,1,0.1,1.4,0.2L-87.8,436.1z"/>
<path class="st0" d="M-80.6,441c-0.4,0.1-0.9,0.2-1.4,0.2c-1.9,0-3.3-1-3.3-3c0-2.1,1.3-3.2,3.3-3.2c0.4,0,0.9,0.1,1.4,0.2l-0.1,1
	c-0.5-0.3-0.9-0.3-1.3-0.3c-1.2,0-2,0.9-2,2.2c0,1.2,0.8,2.1,2,2.1c0.5,0,1-0.1,1.3-0.2L-80.6,441z"/>
<path class="st0" d="M-78.6,435h1.2v6h-1.2V435z"/>
<path class="st0" d="M-74.9,435h3.6v0.9h-2.3v1.5h2.1v0.9h-2.1v1.7h2.4v0.9h-3.6V435H-74.9z"/>
<path class="st0" d="M-68.9,435h1.5l2.3,4.5l0,0V435h1.2v6h-1.5l-2.3-4.5l0,0v4.5h-1.2V435z"/>
<path class="st0" d="M-57.1,441c-0.4,0.1-0.9,0.2-1.4,0.2c-1.9,0-3.3-1-3.3-3c0-2.1,1.3-3.2,3.3-3.2c0.4,0,0.9,0.1,1.4,0.2l-0.1,1
	c-0.5-0.3-0.9-0.3-1.3-0.3c-1.2,0-2,0.9-2,2.2c0,1.2,0.8,2.1,2,2.1c0.5,0,1-0.1,1.3-0.2L-57.1,441z"/>
<path class="st0" d="M-54.9,435h3.6v0.9h-2.3v1.5h2.1v0.9h-2.1v1.7h2.4v0.9h-3.6V435H-54.9z"/>
</svg>
