<?xml version="1.0" encoding="utf-8"?>
<!-- Generator: Adobe Illustrator 19.1.0, SVG Export Plug-In . SVG Version: 6.00 Build 0)  -->
<svg version="1.1" id="Layer_1" xmlns="http://www.w3.org/2000/svg" xmlns:xlink="http://www.w3.org/1999/xlink" x="0px" y="0px"
	 viewBox="0 0 255.7 175.5" style="enable-background:new 0 0 255.7 175.5;" xml:space="preserve">
<style type="text/css">
	.st0{fill:none;stroke:#666666;stroke-miterlimit:10;}
	.st1{fill:#666666;}
</style>
<g>
	<path class="st0" d="M86.1,82.1v53.7L129,157V69.6L86.1,82.1L86.1,82.1z"/>
	<path class="st0" d="M171.6,82.1v53.7L128.7,157V69.6L171.6,82.1L171.6,82.1z"/>
	<path class="st0" d="M97,55.2V95l31.8,15.7V45.9L97,55.2z"/>
	<path class="st0" d="M160.3,55.2V95l-31.8,15.7V45.9L160.3,55.2z"/>
	<path class="st0" d="M150.2,36.5v26.8L128.8,74V30.3L150.2,36.5z"/>
	<path class="st0" d="M107.1,36.5v26.8L128.5,74V30.3L107.1,36.5z"/>
	<path class="st0" d="M128.5,110.6V69.8l0,0V74l-5.4-2.7L97,78.9v16L128.5,110.6L128.5,110.6z"/>
	<path class="st0" d="M129,73.9v36.6L160.3,95V78.8l-26.1-7.6L129,73.9L129,73.9z"/>
	<path class="st0" d="M123.1,71.3l5.4-1.6V46l-21.4,6.2v11.1L123.1,71.3L123.1,71.3z"/>
	<path class="st0" d="M134.3,71.3l15.9-7.9V52.2L128.8,46v23.7L134.3,71.3L134.3,71.3z"/>
	<path class="st1" d="M128.8,155.9l41.8-20.7V82.8l-11.2-3.3V55.9l-10.1-2.9V37.2l-20.6-6h0l-20.6,6v15.7l-10.1,2.9v23.8L87,82.8
		v52.4L128.8,155.9L128.8,155.9z M128.5,157.8l-43.3-21.4V81.4L96,78.2V54.5l10.1-2.9V35.8l22.2-6.5h0.5l22.2,6.5v15.7l10.1,2.9
		v23.7l11.2,3.3v54.9l-43.3,21.4H128.5L128.5,157.8z"/>
	<g>
		<polygon class="st0" points="245.4,39.8 163.2,60.3 163.2,76.4 182,82.4 222,66.2 		"/>
		<polygon class="st0" points="217.7,70.1 182.6,85.2 175,83 175,96 182,98.9 		"/>
		<polyline class="st0" points="181.8,111.1 194.2,120.4 181.8,101.1 175,98.6 175,108 181.8,111.1 		"/>
		<polygon class="st0" points="223.5,42.9 245.7,37.7 248,16.9 235.7,34.2 		"/>
	</g>
	<g>
		<polygon class="st0" points="12.2,39.8 94.4,60.3 94.4,76.4 75.7,82.4 35.7,66.2 		"/>
		<polygon class="st0" points="39.9,70.1 75,85.2 82.7,83 82.7,96 75.7,98.9 		"/>
		<polyline class="st0" points="75.9,111.1 63.4,120.4 75.9,101.1 82.7,98.6 82.7,108 75.9,111.1 		"/>
		<polygon class="st0" points="34.2,42.9 11.9,37.7 9.7,16.9 21.9,34.2 		"/>
	</g>
</g>
</svg>
