<?xml version="1.0" encoding="utf-8"?>
<!-- Generator: Adobe Illustrator 19.1.0, SVG Export Plug-In . SVG Version: 6.00 Build 0)  -->
<svg version="1.1" id="Layer_1" xmlns="http://www.w3.org/2000/svg" xmlns:xlink="http://www.w3.org/1999/xlink" x="0px" y="0px"
	 viewBox="0 0 800 600" style="enable-background:new 0 0 800 600;" xml:space="preserve">
<style type="text/css">
	.st0{fill:#FFFFFF;}
	.st1{fill:#F58220;}
	.st2{fill:#F58220;stroke:#FFFFFF;stroke-miterlimit:10;}
	.st3{fill:#F7AB72;stroke:#FFFFFF;stroke-miterlimit:10;}
</style>
<path class="st0" d="M312.3,374.6l24.4-4.7c0,2.4,0,4.6,0.1,6.4c0.1,1.9,0.3,3.9,0.7,6c0.4,2.2,0.9,4,1.5,5.4
	c0.6,1.4,1.5,2.6,2.7,3.5c1.2,0.9,2.5,1.4,4.1,1.4c4.8,0,7.1-3,7.1-9.1c0-8.3-4.7-16.6-14.1-24.9l-7.5-6.3c-2.4-2-4.3-3.6-5.7-5
	c-1.4-1.3-3.1-3.1-5-5.4c-1.9-2.2-3.4-4.4-4.5-6.5c-1.1-2.1-2-4.6-2.8-7.6c-0.8-3-1.2-6.1-1.2-9.4c0-9.7,3.1-17.3,9.2-22.9
	c6.1-5.6,14.3-8.4,24.4-8.4c8.4,0,15.6,3,21.5,9c5.9,6,8.9,13.2,8.9,21.7l-0.1,0.9v2l-24.9,3.4c0-0.5,0-1.2,0.1-2.3
	c0.1-1,0.1-1.9,0.1-2.5c0-1.6-0.1-3.1-0.3-4.6c-0.2-1.5-0.6-2.9-1.1-4.4c-0.5-1.5-1.3-2.6-2.3-3.5s-2.3-1.3-3.8-1.3
	c-2.6,0-4.6,1-5.9,3.1c-1.3,2.1-2,4.5-2,7.3c0,2.5,0.4,4.8,1.2,6.9c0.8,2.2,1.9,4.2,3.5,6c1.6,1.9,3,3.4,4.3,4.7
	c1.3,1.2,3.1,2.7,5.3,4.5c2.2,1.8,3.8,3.1,4.7,3.9c3.4,3,6.3,5.8,8.6,8.4c2.3,2.6,4.5,5.6,6.6,8.9c2.1,3.3,3.6,6.9,4.7,10.7
	c1,3.8,1.6,8,1.6,12.4c0,8.3-3,15.1-8.9,20.5c-5.9,5.3-13.2,8-21.7,8c-5.5,0-10.4-1-14.7-3c-4.3-2-7.7-4.8-10.3-8.3
	c-2.6-3.5-4.6-7.3-6-11.6C313.4,384,312.6,379.5,312.3,374.6"/>
<path class="st0" d="M394.6,408.7v-101h-17.4v-18h58.6v18h-17.1v101H394.6z"/>
<path class="st0" d="M460.4,368.4h12.3l-6-44.2L460.4,368.4L460.4,368.4z M430.2,408.7l25.7-119h21.3l25.6,119h-23.7l-4.9-25.4
	h-15.5l-4.6,25.4H430.2L430.2,408.7z"/>
<path class="st0" d="M505.5,368.9v-39.4c0-28.1,11.5-42.2,34.5-42.2c4.8,0,9.2,0.6,12.9,1.9c3.8,1.3,6.9,3.1,9.5,5.4
	c2.6,2.3,4.7,5.1,6.3,8.5c1.7,3.3,2.8,7,3.6,10.9c0.7,3.9,1.1,8.2,1.1,13v10.2h-23.7v-11c0-2.2,0-4-0.1-5.6
	c-0.1-1.6-0.3-3.3-0.7-5.4c-0.4-2-0.9-3.6-1.5-4.9c-0.6-1.3-1.6-2.3-2.8-3.2c-1.3-0.9-2.8-1.3-4.5-1.3c-7,0-10.4,5.9-10.4,17.6v51.4
	c0,11.7,3.5,17.5,10.4,17.5c2.1,0,3.8-0.6,5.2-1.8c1.4-1.2,2.4-2.9,3-5.1c0.6-2.2,1-4.3,1.3-6.4c0.2-2.1,0.3-4.5,0.3-7.2v-12.2h23.5
	v10c-0.1,4.5-0.5,8.7-1.1,12.6c-0.7,3.8-1.8,7.6-3.4,11.2c-1.6,3.6-3.6,6.7-6,9.2c-2.4,2.5-5.6,4.5-9.5,6c-3.9,1.5-8.3,2.3-13.4,2.3
	c-5.2,0-9.7-0.7-13.7-2.2c-4-1.5-7.3-3.5-9.8-5.9c-2.6-2.5-4.7-5.6-6.4-9.2c-1.7-3.6-2.9-7.5-3.5-11.5
	C505.9,378.1,505.5,373.7,505.5,368.9"/>
<path class="st0" d="M581.9,408.7v-119H606v45.1l18.6-45.1h26.9l-27.7,56.6l29.5,62.3h-25L606,365.5v43.2H581.9z"/>
<path class="st1" d="M654.6,364.4v-74.8h24.1v71.1c0,4.2,0,7.3,0.1,9.2c0,1.9,0.2,4.3,0.3,7c0.2,2.8,0.5,4.7,0.9,5.8
	c0.4,1.1,1,2.3,1.8,3.6c0.8,1.3,1.8,2.1,3,2.5c1.2,0.4,2.7,0.6,4.5,0.6c1.8,0,3.3-0.2,4.5-0.6c1.2-0.4,2.2-1.2,3-2.5
	c0.8-1.3,1.4-2.4,1.8-3.5c0.4-1.1,0.7-3,0.9-5.7s0.3-5,0.3-6.9c0-1.9,0.1-4.9,0.1-9.1v-0.4v-71.1H724v74.8c0,3.8-0.1,7.2-0.3,10.3
	c-0.2,3.1-0.6,6.3-1.3,9.6c-0.6,3.3-1.5,6.2-2.5,8.8s-2.5,5-4.2,7.3c-1.8,2.3-3.8,4.2-6.2,5.7c-2.4,1.5-5.3,2.7-8.7,3.6
	c-3.4,0.9-7.2,1.3-11.4,1.3c-4.2,0-8-0.4-11.4-1.3c-3.4-0.9-6.3-2.1-8.7-3.6c-2.4-1.5-4.5-3.4-6.2-5.7s-3.2-4.7-4.2-7.3
	c-1.1-2.5-1.9-5.5-2.5-8.8c-0.6-3.3-1.1-6.5-1.3-9.6C654.8,371.7,654.6,368.2,654.6,364.4"/>
<path class="st1" d="M759.2,340.8c1.3,0,2.4-0.1,3.4-0.2c1-0.2,7.7-0.3,8.5-0.5c0.7-0.2,1.4-0.6,2-1.1c0.6-0.5,1-1,1.4-1.4
	c0.4-0.4,0.7-1,1-2c0.3-0.9,0.5-1.6,0.6-2.2c0.1-0.6,0.2-1.5,0.3-2.8c0.1-1.3,0.1-2.3,0.1-3.1v-3.6v-1c0-1.7,0-3,0-3.9
	c0-0.9-0.1-2-0.2-3.4c-0.1-1.4-0.3-2.4-0.6-3.1c-0.3-0.7-0.7-1.5-1.3-2.3c-0.6-0.9-1.2-1.5-2-1.9c-0.8-0.4-1.8-0.7-3-1.1
	s-8.5-0.5-10.1-0.5L759.2,340.8L759.2,340.8z M735,408.7v-119h34.6c10.4,0,17.9,2.9,22.6,8.7c4.7,5.8,7.1,14.1,7.1,25
	c0,5.4-0.5,10-1.6,14c-1,4-2.5,7.2-4.3,9.8c-1.9,2.6-4.2,4.6-7.1,6.2s-6.1,2.7-9.5,3.3c-3.4,0.6-13.2,1-17.6,1v50.9L735,408.7
	L735,408.7z"/>
<path class="st1" d="M27.2,266.9v155L151,483.1V230.8L27.2,266.9L27.2,266.9z"/>
<path class="st1" d="M274,266.9v155l-123.8,61.3V230.8L274,266.9L274,266.9z"/>
<path class="st0" d="M58.6,189.1V304l91.8,45.4V162.3C150.5,162.3,58.6,189.1,58.6,189.1z"/>
<path class="st0" d="M241.6,189.1V304l-91.8,45.4V162.3C149.7,162.3,241.6,189.1,241.6,189.1z"/>
<path class="st2" d="M212.4,135.3v77.5l-61.9,30.6V117.3C150.5,117.3,212.4,135.3,212.4,135.3z"/>
<path class="st2" d="M87.7,135.3v77.5l61.9,30.6V117.3C149.7,117.3,87.7,135.3,87.7,135.3z"/>
<path class="st3" d="M149.7,349.1V231.2l-0.1,0v12.2l-15.5-7.7l-75.5,22V304L149.7,349.1L149.7,349.1z"/>
<path class="st3" d="M151,243.1v105.6l90.6-44.8v-46.5l-75.2-21.9L151,243.1L151,243.1z"/>
<path class="st3" d="M134.1,235.7l15.5-4.5v-68.7l-61.9,18v32.2L134.1,235.7L134.1,235.7z"/>
<path class="st3" d="M166.3,235.5l46-22.8v-32.2l-61.9-18v68.4L166.3,235.5L166.3,235.5z"/>
<path class="st0" d="M150.6,479.9l120.7-59.7V268.9l-32.4-9.4v-68.4l-29.2-8.5v-45.3L150.1,120h0l-59.6,17.3v45.3l-29.1,8.5v68.7
	l-31.4,9.2v151.2L150.6,479.9L150.6,479.9z M149.5,485.4l-125-61.9V264.8l31.4-9.2V187l29.1-8.5v-45.3l64.3-18.7h1.6l64.3,18.7v45.3
	l29.2,8.5v68.4l32.4,9.4v158.7l-125,61.9H149.5L149.5,485.4z"/>
</svg>
